{"table":[{"name":"Niobium","number":41,"symbol":"Nb","mass":92.90638,"melting_point":"2477","boiling_point":"4744","radius":198},
 {"name":"Molybdenum","number":42,"symbol":"Mo","mass":95.96,"melting_point":"2623","boiling_point":"4639","radius":190},
 {"name":"Technetium","number":43,"symbol":"Tc","mass":98,"melting_point":"2157","boiling_point":"4265","radius":183,"stability":"unstable"},
 {"name":"Ruthenium","number":44,"symbol":"Ru","mass":101.07,"melting_point":"2334","boiling_point":"4150","radius":178},
 {"name":"Rhodium","number":45,"symbol":"Rh","mass":102.9055,"melting_point":"1964","boiling_point":"3695","radius":173},
 {"name":"Palladium","number":46,"symbol":"Pd","mass":106.42,"melting_point":"1554","boiling_point":"2953","radius":169},
 {"name":"Silver","number":47,"symbol":"Ag","mass":107.8682,"melting_point":"961.78","boiling_point":"2162","radius":165},
 {"name":"Cadmium","number":48,"symbol":"Cd","mass":112.411,"melting_point":"321.07","boiling_point":"767","radius":161},
 {"name":"Indium","number":49,"symbol":"In","mass":114.818,"melting_point":"156.6","boiling_point":"2072","radius":156},
 {"name":"Tin","number":50,"symbol":"Sn","mass":118.71,"melting_point":"231.93","boiling_point":"2062","radius":145},
 {"name":"Antimony","number":51,"symbol":"Sb","mass":121.76,"melting_point":"630.63","boiling_point":"1587","radius":133},
 {"name":"Tellurium","number":52,"symbol":"Te","mass":127.6,"melting_point":"449.51","boiling_point":"988","radius":123},
 {"name":"Iodine","number":53,"symbol":"I","mass":126.90447,"melting_point":"113.7","boiling_point":"184.3","radius":115},
 {"name":"Xenon","number":54,"symbol":"Xe","mass":131.293,"melting_point":"-111.8","boiling_point":"-108","radius":108},
 {"name":"Caesium","number":55,"symbol":"Cs","mass":132.90546,"melting_point":"28.44","boiling_point":"671","radius":298},
 {"name":"Barium","number":56,"symbol":"Ba","mass":137.327,"melting_point":"727","boiling_point":"1870","radius":253},
 {"name":"Lanthanum","number":57,"symbol":"La","mass":138.90547,"melting_point":"920","boiling_point":"3464","radius":251},
 {"name":"Cerium","number":58,"symbol":"Ce","mass":140.116,"melting_point":"798","boiling_point":"3360","radius":248},
 {"name":"Praseodymium","number":59,"symbol":"Pr","mass":140.90765,"melting_point":"931","boiling_point":"3290","radius":247},
 {"name":"Neodymium","number":60,"symbol":"Nd","mass":144.242,"melting_point":"1021","boiling_point":"3074","radius":206}
]}
